{
    "variable": [
        {
            "id": "baseUrl",
            "key": "baseUrl",
            "type": "string",
            "name": "string",
            "value": "https:\/\/doliscan.alpha.devtemp.fr"
        }
    ],
    "info": {
        "name": "DoliSCAN API",
        "_postman_id": "15207ef1-6acf-4775-ba19-8f6260ec8728",
        "description": "Documentation of AoliSCAN API",
        "schema": "https:\/\/schema.getpostman.com\/json\/collection\/v2.1.0\/collection.json"
    },
    "item": [],
    "auth": {
        "type": "noauth"
    }
}